{
  "code": 0,
  "message": "",
  "data": {
    "currentPage": 9,
    "totalPage": 100,
    "totalCount": 520,
    "pageSize": 9,
    "data": [
      {
        "id": "1",
        "title": "广东省广播电视网络股份有限公司清远分公司全市光纤、同轴电缆",
        "buyUnit": "广东省广播电视网络股份有限公司",
        "publishTime": "2018-11-06 18:15:17",
        "endTime": 1542942539745,
        "buttonType": "即将开始",
        "status": 0
      },
      {
        "id": "2",
        "title": "广东省广播电视网络股份有限公司清远分公司全市光纤、同轴电缆",
        "buyUnit": "广东省广播电视网络股份有限公司",
        "publishTime": "2018-11-06 18:15:17",
        "endTime": 1542977959654,
        "buttonType": "已结束",
        "status": 2
      },
      {
        "id": "3",
        "title": "广东省广播电视网络股份有限公司清远分公司全市光纤、同轴电缆",
        "buyUnit": "广东省广播电视网络股份有限公司",
        "publishTime": "2018-11-06 18:15:17",
        "endTime": 1542946969654,
        "buttonType": "正在进行",
        "status": 1
      },
      {
        "id": "4",
        "title": "广东省广播电视网络股份有限公司清远分公司全市光纤、同轴电缆",
        "buyUnit": "广东省广播电视网络股份有限公司",
        "publishTime": "2018-11-06 18:15:17",
        "endTime": 1542947959654,
        "buttonType": "点击查看",
        "status": 3
      },
      {
        "id": "5",
        "title": "广东省广播电视网络股份有限公司清远分公司全市光纤、同轴电缆",
        "buyUnit": "广东省广播电视网络股份有限公司",
        "publishTime": "2018-11-06 18:15:17",
        "endTime": 1542947959654,
        "buttonType": "即将开始",
        "status": 0
      },
      {
        "id": "6",
        "title": "广东省广播电视网络股份有限公司清远分公司全市光纤、同轴电缆",
        "buyUnit": "广东省广播电视网络股份有限公司",
        "publishTime": "2018-11-06 18:15:17",
        "endTime": 1542947959654,
        "buttonType": "即将开始",
        "status": 0
      },
      {
        "id": "7",
        "title": "广东省广播电视网络股份有限公司清远分公司全市光纤、同轴电缆",
        "buyUnit": "广东省广播电视网络股份有限公司",
        "publishTime": "2018-11-06 18:15:17",
        "endTime": 1542947959654,
        "buttonType": "点击查看",
        "status": 3
      },
      {
        "id": "8",
        "title": "广东省广播电视网络股份有限公司清远分公司全市光纤、同轴电缆",
        "buyUnit": "广东省广播电视网络股份有限公司",
        "publishTime": "2018-11-06 18:15:17",
        "endTime": 1542947959654,
        "buttonType": "即将开始",
        "status": 0
      },
      {
        "id": "9",
        "title": "广东省广播电视网络股份有限公司清远分公司全市光纤、同轴电缆",
        "buyUnit": "广东省广播电视网络股份有限公司",
        "publishTime": "2018-11-06 18:15:17",
        "endTime": 1542949959654,
        "buttonType": "正在进行",
        "status": 3
      }
    ]
  }
}